{
"nodes":[
{"node":0,"name":"RFM : 111"},{"node":1,"name":"RFM : 112"},{"node":2,"name":"RFM : 121"},
{"node":3,"name":"RFM : 211"},{"node":4,"name":"RFM : 113"},{"node":5,"name":"RFM : 131"},
{"node":6,"name":"RFM : 122"},{"node":7,"name":"RFM : 212"},{"node":8,"name":"RFM : 221"},{"node":9,"name":"RFM : 123"},
{"node":10,"name":"RFM : 132"},{"node":11,"name":"RFM : 222"},{"node":12,"name":"RFM : 231"},{"node":13,"name":"RFM : 213"},
{"node":14,"name":"RFM : 133"},{"node":15,"name":"RFM : 223"},{"node":16,"name":"RFM : 232"},{"node":17,"name":"RFM : 233"},
{"node":18,"name":"RFM : 311"},{"node":19,"name":"RFM : 321"},{"node":20,"name":"RFM : 312"},
{"node":21,"name":"RFM : 313"},{"node":22,"name":"RFM : 322"},{"node":23,"name":"RFM : 323"},
{"node":24,"name":"RFM : 331"},{"node":25,"name":"RFM : 332"},{"node":26,"name":"RFM : 333"}
],
"links":[
{"source":0,"target":3,"value":38705},{"source":1,"target":7,"value":9722},{"source":2,"target":8,"value":7955},{"source":3,"target":18,"value":4881},
{"source":4,"target":13,"value":1615},{"source":5,"target":12,"value":812},{"source":6,"target":11,"value":6082},{"source":7,"target":20,"value":1220},
{"source":8,"target":19,"value":1105},{"source":10,"target":16,"value":3702},{"source":11,"target":22,"value":1178},{"source":12,"target":24,"value":192},
{"source":13,"target":21,"value":232},{"source":14,"target":17,"value":3442},{"source":15,"target":23,"value":443},{"source":16,"target":25,"value":728},
{"source":17,"target":26,"value":1138},{"source":0,"target":2,"value":38705},{"source":1,"target":6,"value":9722},{"source":2,"target":5,"value":7955},
{"source":3,"target":8,"value":4881},
{"source":3,"target":9,"value":1615},{"source":18,"target":19,"value":19348},{"source":6,"target":10,"value":6082},{"source":7,"target":11,"value":1220},
{"source":8,"target":12,"value":1105},{"source":9,"target":14,"value":1908},{"source":19,"target":24,"value":4778},{"source":11,"target":16,"value":1178},
{"source":20,"target":22,"value":4807},{"source":13,"target":15,"value":232},
{"source":21,"target":23,"value":688},{"source":15,"target":17,"value":443},{"source":22,"target":25,"value":6211},{"source":23,"target":26,"value":2173},
{"source":0,"target":1,"value":38705},{"source":1,"target":4,"value":9722},{"source":2,"target":6,"value":7955},{"source":3,"target":7,"value":4881},
{"source":5,"target":10,"value":812},{"source":18,"target":20,"value":19348},
{"source":6,"target":9,"value":6082},{"source":7,"target":13,"value":1220},{"source":8,"target":11,"value":1105},{"source":10,"target":14,"value":3702},
{"source":22,"target":23,"value":4778},{"source":11,"target":15,"value":1178},{"source":12,"target":16,"value":192},{"source":20,"target":21,"value":4807},
{"source":24,"target":25,"value":1072},{"source":16,"target":17,"value":728},{"source":22,"target":23,"value":6211},{"source":25,"target":26,"value":4489}
]}