﻿"Party ID","First Name","Last Name","Email Address","Phone","Postal Code","Campaign name","Campaign Theme","From Date","Thru Date","Campaign Type"
"10140975","Oi Ling","Soon","oilingsoon@hotmail.com","2144604430","75025","Sample Camp Test3","Campaign Theme 1","2020-12-24","2020-12-31","EMAIL"
"10140977","su-hsiang","Miao","sumiao168816882010@hotmail.com","6154829268","37211","Sample Camp Test3","Campaign Theme 1","2020-12-24","2020-12-31","EMAIL"
"10141011","steven","chen","stevenchen217@gmail.com","4693474338","08540","Sample Camp Test3","Campaign Theme 1","2020-12-24","2020-12-31","EMAIL"
"10141055","Hungming","Chien","ehmc888@gmail.com","9492937141","92620-3399","Sample Camp Test3","Campaign Theme 1","2020-12-24","2020-12-31","EMAIL"
"10141190","jin","shan","shan.jin@sbcglobal.net","4156812540","94116","Sample Camp Test3","Campaign Theme 1","2020-12-24","2020-12-31","EMAIL"
"10141194","Sherri","Liu","sherriliu@live.com","8327755688","77429-6593","Sample Camp Test3","Campaign Theme 1","2020-12-24","2020-12-31","EMAIL"
"10141206","zi","wang","wangzi1983@yahoo.com","3472649795","62208","Sample Camp Test3","Campaign Theme 1","2020-12-24","2020-12-31","EMAIL"
"10141275","Han","Wu","wuuhann@gmail.com","8327883782","77494","Sample Camp Test3","Campaign Theme 1","2020-12-24","2020-12-31","EMAIL"
"10141288","joyce","jin","joyce8jin@yahoo.com","9498787088","92606","Sample Camp Test3","Campaign Theme 1","2020-12-24","2020-12-31","EMAIL"
"10141430","Jeff ","Wey","jwey@panynj.gov","9087231817","07920","Sample Camp Test3","Campaign Theme 1","2020-12-24","2020-12-31","EMAIL"
"10141702","Esther","Chow","estherchow@me.com","4802311877","85298","Sample Camp Test3","Campaign Theme 1","2020-12-24","2020-12-31","EMAIL"
"10141723","Kathy","Lee","kathylee128@yahoo.com","7736279728","60067","Sample Camp Test3","Campaign Theme 1","2020-12-24","2020-12-31","EMAIL"
"10140060","DING","DU","ding.du@nau.edu","6056954887","22202-4726","Sample Camp Test3","Campaign Theme 1","2020-12-24","2020-12-31","EMAIL"
"10142058","Michael","Sheehy","katie@scalley.org","6465224936","10002-1992","Sample Camp Test3","Campaign Theme 1","2020-12-24","2020-12-31","EMAIL"
"10144982","Shu Tzu","Tai","shu.tai@att.net","3169930289","67226","Sample Camp Test3","Campaign Theme 1","2020-12-24","2020-12-31","EMAIL"
"10148804","Binghua","Wu","bnghwu@yahoo.com","6106087058","19460","Sample Camp Test3","Campaign Theme 1","2020-12-24","2020-12-31","EMAIL"
"10151286","Lucy","Tang","lucy_ttang@yahoo.com","7033031233","20151","Sample Camp Test3","Campaign Theme 1","2020-12-24","2020-12-31","EMAIL"
"10152039","Man Tak","Chan","mtchan668@yahoo.com","7046613866","28216-1665","Sample Camp Test3","Campaign Theme 1","2020-12-24","2020-12-31","EMAIL"
"10152485","Hui","Zhi","huizhi64@yzhoo.com","3217523893","32940","Sample Camp Test3","Campaign Theme 1","2020-12-24","2020-12-31","EMAIL"
